<?xml version="1.0" encoding="utf-8"?>
<svg viewBox="0 0 64 64" xmlns="http://www.w3.org/2000/svg">
  <g transform="matrix(2.666667, 0, 0, 2.666667, 0, 0)">
    <path fill="none" d="M0 0h24v24H0z"/>
    <path d="M20 9V5H4v4h16zm0 2H4v8h16v-8zM3 3h18a1 1 0 0 1 1 1v16a1 1 0 0 1-1 1H3a1 1 0 0 1-1-1V4a1 1 0 0 1 1-1zm2 9h3v5H5v-5zm0-6h2v2H5V6zm4 0h2v2H9V6z" fill="white"/>
  </g>
</svg>